{
  "posts": [
    {
      "id": 1,
      "title": "json-server",
      "author": "typicode"
    },
    {
      "name": "Yulduz",
      "username": "Y1234",
      "email": "yulduz25@gmail.com",
      "id": 2
    },
    {
      "name": "user",
      "username": "user7412",
      "email": "user@gmail.com",
      "id": 3
    }
  ],
  "comments": [
    {
      "id": 1,
      "body": "some comment",
      "postId": 1
    }
  ],
  "profile": {
    "name": "typicode"
  }
}